1.762742660055220068e+00,1.368263970022829135e+01,0.000000000000000000e+00
2.005725284600393454e+00,1.037445821255968781e+01,0.000000000000000000e+00
1.732151911579896897e+00,8.549423870702860029e+00,0.000000000000000000e+00
2.226431143220032105e+00,5.704512334661780315e+00,0.000000000000000000e+00
1.656343432679266758e+00,1.064861711297436031e+01,0.000000000000000000e+00
2.592649590610573540e+00,9.460755778732874433e+00,0.000000000000000000e+00
2.262204661749293688e+00,7.382125840574706999e+00,0.000000000000000000e+00
2.083692269446352885e+00,1.016466125513140462e+01,0.000000000000000000e+00
1.633240100422962193e+00,1.089078808477199622e+01,0.000000000000000000e+00
1.833399071794258761e+00,7.381759997166258636e+00,0.000000000000000000e+00
1.847712284225809576e+00,1.068329733144949678e+01,0.000000000000000000e+00
2.424489050448449312e+00,6.219426668702402239e+00,0.000000000000000000e+00
1.654898299264571326e+00,6.807741775162275744e+00,0.000000000000000000e+00
2.077395850192674143e+00,7.270521908277244094e+00,0.000000000000000000e+00
1.491275608829310428e+00,1.019709606488959963e+01,0.000000000000000000e+00
1.939653423158776091e+00,7.932184748309111022e+00,0.000000000000000000e+00
2.223841808678175269e+00,6.396136268685813420e+00,0.000000000000000000e+00
2.277062475483673687e+00,1.102072988384871977e+01,0.000000000000000000e+00
1.661696543329336251e+00,1.021865950998479633e+01,0.000000000000000000e+00
2.141929855729947096e+00,9.809801976720669003e+00,0.000000000000000000e+00
1.874873940220841639e+00,1.004230179140283319e+01,0.000000000000000000e+00
1.749649579022181323e+00,1.128520412370453130e+01,0.000000000000000000e+00
2.058264914178572713e+00,8.540552910403725662e+00,0.000000000000000000e+00
2.438168109598523703e+00,1.062883558990445998e+01,0.000000000000000000e+00
2.123450149269216602e+00,8.403846971349182127e+00,0.000000000000000000e+00
1.798258873138594671e+00,1.070804408097816562e+01,0.000000000000000000e+00
2.513250126178741439e+00,7.411371086048744061e+00,0.000000000000000000e+00
2.139238873143736175e+00,9.953429871481072055e+00,0.000000000000000000e+00
2.230571099029852178e+00,6.649185398095623256e+00,0.000000000000000000e+00
2.172003366191465279e+00,9.786004200767560945e+00,0.000000000000000000e+00
2.352618857841262567e+00,1.102492792591075066e+01,0.000000000000000000e+00
1.915831726193411022e+00,7.982974228956190466e+00,0.000000000000000000e+00
1.382379347649310475e+00,1.073608522552843958e+01,0.000000000000000000e+00
2.128865367922941232e+00,1.002642635113512171e+01,0.000000000000000000e+00
1.518487974770838189e+00,8.781925132032768033e+00,0.000000000000000000e+00
2.276379299529162292e+00,1.069826035310308399e+01,0.000000000000000000e+00
2.085855503348442497e+00,7.631915243903266699e+00,0.000000000000000000e+00
1.753469990638373055e+00,7.007208930489216669e+00,0.000000000000000000e+00
2.073556106415703759e+00,9.761910684608837485e+00,0.000000000000000000e+00
1.995065025542146708e+00,1.224369283450109158e+01,0.000000000000000000e+00
1.826582186126609164e+00,7.216880518310638593e+00,0.000000000000000000e+00
2.373788473495659357e+00,7.717953343313413761e+00,0.000000000000000000e+00
2.204218411525898702e+00,7.791459661399014358e+00,0.000000000000000000e+00
1.623326993397502083e+00,7.560397173294584050e+00,0.000000000000000000e+00
2.008156467454383698e+00,8.806464496646331241e+00,0.000000000000000000e+00
2.389602843917789432e+00,1.110673682924284300e+01,0.000000000000000000e+00
1.709668646084231192e+00,8.221359907219168761e+00,0.000000000000000000e+00
2.335797270513111368e+00,9.791047224834937168e+00,0.000000000000000000e+00
1.479410165051289416e+00,1.078748484549888609e+01,0.000000000000000000e+00
2.123769227582894104e+00,7.115158148313602382e+00,0.000000000000000000e+00
2.238772633603787199e+00,1.200968474559829957e+01,0.000000000000000000e+00
2.195569367877806766e+00,9.626266098025419993e+00,0.000000000000000000e+00
2.274302884609959108e+00,1.053467458805944901e+01,0.000000000000000000e+00
2.119037655767173511e+00,1.160935818216069038e+01,0.000000000000000000e+00
2.208221227705123635e+00,8.947528953432199117e+00,0.000000000000000000e+00
1.944607362739160905e+00,6.917698898094586824e+00,0.000000000000000000e+00
1.767026493835856860e+00,1.091351578896349928e+01,0.000000000000000000e+00
1.718302372237081599e+00,7.389566239546232040e+00,0.000000000000000000e+00
1.807000351740247091e+00,8.711225420705902778e+00,0.000000000000000000e+00
2.289140234604863711e+00,9.791787078959107049e+00,0.000000000000000000e+00
1.969302030363970557e+00,8.317560294790082409e+00,0.000000000000000000e+00
2.094385604832704306e+00,9.585021777660168496e+00,0.000000000000000000e+00
1.888700436641342684e+00,7.632871590494255010e+00,0.000000000000000000e+00
2.106011919950813827e+00,7.763741142160768938e+00,0.000000000000000000e+00
1.808651265444398026e+00,8.794334977149517840e+00,0.000000000000000000e+00
1.445709782990750591e+00,1.137977551912639029e+01,0.000000000000000000e+00
1.463557840777574004e+00,1.058582287886896545e+01,0.000000000000000000e+00
2.308906408138118760e+00,7.475030875977006772e+00,0.000000000000000000e+00
1.570813518994483626e+00,6.268664692472080802e+00,0.000000000000000000e+00
1.808479076800619145e+00,9.737597228911697655e+00,0.000000000000000000e+00
1.852623735757560119e+00,8.675572664006894641e+00,0.000000000000000000e+00
1.792056114856763527e+00,9.113172929283562596e+00,0.000000000000000000e+00
1.624686796702282887e+00,7.017222312893500735e+00,0.000000000000000000e+00
2.285849803717799222e+00,1.069534910853303700e+01,0.000000000000000000e+00
2.237673465935363648e+00,9.285729682693471432e+00,0.000000000000000000e+00
2.099382382622223986e+00,9.914460182592524262e+00,0.000000000000000000e+00
1.905237483053397129e+00,9.891120475101422116e+00,0.000000000000000000e+00
1.982754950059262500e+00,7.912704290823349140e+00,0.000000000000000000e+00
1.304190265511202762e+00,5.959317763755779929e+00,0.000000000000000000e+00
2.038854107581632658e+00,6.575341802775049871e+00,0.000000000000000000e+00
1.957465515806686929e+00,1.102325195727543061e+01,0.000000000000000000e+00
2.163423779156452564e+00,6.526675007554865182e+00,0.000000000000000000e+00
2.158412072089610501e+00,7.349640347125337314e+00,0.000000000000000000e+00
2.311341429694525385e+00,7.120277455076971407e+00,0.000000000000000000e+00
2.292170525432849271e+00,8.036841649319496739e+00,0.000000000000000000e+00
2.189525211388261283e+00,9.423690033880435024e+00,0.000000000000000000e+00
1.717870303998065173e+00,6.111911506820509210e+00,0.000000000000000000e+00
2.116578173778409955e+00,1.059998514791277024e+01,0.000000000000000000e+00
1.591960174545864470e+00,7.873247294262727181e+00,0.000000000000000000e+00
2.283591930716636575e+00,9.128247321701401518e+00,0.000000000000000000e+00
1.819821239536192570e+00,5.737301457076812383e+00,0.000000000000000000e+00
2.229978784690131555e+00,6.808440545608121397e+00,0.000000000000000000e+00
1.306418819834617828e+00,7.252205198233999006e+00,0.000000000000000000e+00
1.849948442684140826e+00,8.353056576596966210e+00,0.000000000000000000e+00
1.866543725994029845e+00,6.088672283688858045e+00,0.000000000000000000e+00
2.083441162787292189e+00,1.180880495140036146e+01,0.000000000000000000e+00
2.176093347987669180e+00,7.101066315003999208e+00,0.000000000000000000e+00
1.988959649654118866e+00,5.745311921194339533e+00,0.000000000000000000e+00
1.817729697178800841e+00,3.297190722099428761e+00,0.000000000000000000e+00
1.699721498311811407e+00,1.125269907580543105e+01,0.000000000000000000e+00
2.018943974348069936e+00,7.872816359255814689e+00,0.000000000000000000e+00
1.959668564352641473e+00,9.334454452259016932e+00,0.000000000000000000e+00
2.068226300001091644e+00,9.660897362195470350e+00,0.000000000000000000e+00
2.274049597546865975e+00,7.504301524916799693e+00,0.000000000000000000e+00
2.063480063096607697e+00,9.694121526907814257e+00,0.000000000000000000e+00
1.514923122433470271e+00,1.026368467867165002e+01,0.000000000000000000e+00
1.982234198720084883e+00,8.748706328614854755e+00,0.000000000000000000e+00
2.096081799933771084e+00,8.219035744111474528e+00,0.000000000000000000e+00
2.077750376985273206e+00,6.973077101034125924e+00,0.000000000000000000e+00
1.937564682910507541e+00,9.197333478299301035e+00,0.000000000000000000e+00
2.001295649530908882e+00,7.658411879628977736e+00,0.000000000000000000e+00
1.543221910504957606e+00,9.588938931916016983e+00,0.000000000000000000e+00
1.363225862973357572e+00,8.099561565871201907e+00,0.000000000000000000e+00
2.357857906385713687e+00,6.132050448113003149e+00,0.000000000000000000e+00
2.183038715279380870e+00,3.289466932532955745e+00,0.000000000000000000e+00
1.671279753488684516e+00,9.652954679422935058e+00,0.000000000000000000e+00
2.042939003674815179e+00,1.011636201855912809e+01,0.000000000000000000e+00
2.611220776583752734e+00,8.842121530434475574e+00,0.000000000000000000e+00
2.243408350983921551e+00,1.086944089343689512e+01,0.000000000000000000e+00
1.804185382710020491e+00,8.872584303282433638e+00,0.000000000000000000e+00
2.005408289355063545e+00,7.305671344287777202e+00,0.000000000000000000e+00
1.754345728419554495e+00,9.178067847670210000e+00,0.000000000000000000e+00
2.516547363696405526e+00,7.895227550929919680e+00,0.000000000000000000e+00
1.946477322568876289e+00,8.803440883184300958e+00,0.000000000000000000e+00
2.186087107756663261e+00,7.356968247506593173e+00,0.000000000000000000e+00
2.286479654483314583e+00,8.523106323630015524e+00,0.000000000000000000e+00
2.180319274650420081e+00,1.140544733150800916e+01,0.000000000000000000e+00
2.118625834922676532e+00,7.906325069027015928e+00,0.000000000000000000e+00
2.198137303775828499e+00,9.401969269937945128e+00,0.000000000000000000e+00
2.346073559282907617e+00,1.335290246125120461e+01,0.000000000000000000e+00
2.043275835373716820e+00,7.210932724374746527e+00,0.000000000000000000e+00
1.815525601382043108e+00,6.789115953082778709e+00,0.000000000000000000e+00
1.930894101570766574e+00,1.047582528433809657e+01,0.000000000000000000e+00
2.038873396816292871e+00,1.197672634472584363e+01,0.000000000000000000e+00
1.827689850205890254e+00,7.331512194852568776e+00,0.000000000000000000e+00
1.871203018987948274e+00,8.924869292763498052e+00,0.000000000000000000e+00
2.316274535534695644e+00,5.762747906995805636e+00,0.000000000000000000e+00
2.065808035194781400e+00,1.275482607919481737e+01,0.000000000000000000e+00
2.718185375698028317e+00,1.333459003476787075e+01,0.000000000000000000e+00
2.350461658485162530e+00,9.411929164285590232e+00,0.000000000000000000e+00
1.948531812398821561e+00,8.451640159307105549e+00,0.000000000000000000e+00
2.050598796320480588e+00,6.121113561805548997e+00,0.000000000000000000e+00
2.279281649197263615e+00,1.031457342131442978e+01,0.000000000000000000e+00
1.816064094212415769e+00,9.645426500427998207e+00,0.000000000000000000e+00
2.115044700107350906e+00,7.599340590022662489e+00,0.000000000000000000e+00
2.509407476529525560e+00,1.006369075287478410e+01,0.000000000000000000e+00
2.247159524557657662e+00,1.032522873702587596e+01,0.000000000000000000e+00
2.379840103790865857e+00,1.204968892286384019e+01,0.000000000000000000e+00
2.102702870459697504e+00,1.011247391546354102e+01,0.000000000000000000e+00
1.768840627851276048e+00,7.186947814106720678e+00,0.000000000000000000e+00
2.268060263640415020e+00,1.190093514045706158e+01,0.000000000000000000e+00
2.315745784943926022e+00,7.713221886697549934e+00,0.000000000000000000e+00
1.763578663871693930e+00,8.446467557868572840e+00,0.000000000000000000e+00
2.420521607224624727e+00,8.237830569357182497e+00,0.000000000000000000e+00
2.148306339983708568e+00,9.740195659666362360e+00,0.000000000000000000e+00
1.397963417803415265e+00,9.488701161175049137e+00,0.000000000000000000e+00
1.613963664689337607e+00,9.559675422932585320e+00,0.000000000000000000e+00
1.925346876339139923e+00,9.218686636826488368e+00,0.000000000000000000e+00
1.485011511874731571e+00,9.791856791339926147e+00,0.000000000000000000e+00
1.527250356625586836e+00,8.523340666389426445e+00,0.000000000000000000e+00
2.039843053722127042e+00,8.706096318741980866e+00,0.000000000000000000e+00
2.234625930447029507e+00,7.082276766177072247e+00,0.000000000000000000e+00
1.730268471242012662e+00,1.001859542631667566e+01,0.000000000000000000e+00
1.648514178681203202e+00,7.944594541586689651e+00,0.000000000000000000e+00
2.050385490393565213e+00,9.269793480856240109e+00,0.000000000000000000e+00
2.292434124468466283e+00,1.070175188516472176e+01,0.000000000000000000e+00
2.555873494883452057e+00,7.455944031756416734e+00,0.000000000000000000e+00
1.814368389859664310e+00,7.418646687781331295e+00,0.000000000000000000e+00
2.498150755171042903e+00,6.099458594608003992e+00,0.000000000000000000e+00
1.971562854460160885e+00,9.482544232967198283e+00,0.000000000000000000e+00
1.891005966863467780e+00,1.036757542407359090e+01,0.000000000000000000e+00
2.064215478489243250e+00,1.226391628795712130e+01,0.000000000000000000e+00
2.522449519450421285e+00,1.177039801872775016e+01,0.000000000000000000e+00
1.951532299069909326e+00,8.253841504486583602e+00,0.000000000000000000e+00
1.960291266386557485e+00,7.833006428721950520e+00,0.000000000000000000e+00
2.007301379587371759e+00,8.993441918917371325e+00,0.000000000000000000e+00
1.952963799542451584e+00,4.188234936187536839e+00,0.000000000000000000e+00
1.660233313172116087e+00,1.127391891034229410e+01,0.000000000000000000e+00
2.300201888623031987e+00,1.021968673788709125e+01,0.000000000000000000e+00
1.323967129227541228e+00,1.020853381915818936e+01,0.000000000000000000e+00
2.130065405901372166e+00,7.765048048492960930e+00,0.000000000000000000e+00
2.128388314017230609e+00,6.845671342447301910e+00,0.000000000000000000e+00
2.262838688634440043e+00,9.443487594060647083e+00,0.000000000000000000e+00
2.013245314199637814e+00,1.132015655320480363e+01,0.000000000000000000e+00
1.413583471279662440e+00,1.409713585187583362e+01,0.000000000000000000e+00
2.056811150320539738e+00,1.024774408360589106e+01,0.000000000000000000e+00
1.838832991047615550e+00,1.076897727758251300e+01,0.000000000000000000e+00
1.978393196169093038e+00,9.306729978516537827e+00,0.000000000000000000e+00
1.602012336297002904e+00,5.250835138307586192e+00,0.000000000000000000e+00
2.231732992006346450e+00,8.247005812718256834e+00,0.000000000000000000e+00
2.088501692912628105e+00,1.045751799724850883e+01,0.000000000000000000e+00
2.025496735622717370e+00,1.145902254682486721e+01,0.000000000000000000e+00
1.980486616090208152e+00,1.236166614680345255e+01,0.000000000000000000e+00
1.709782836021388031e+00,1.203005264800514418e+01,0.000000000000000000e+00
2.049357907746711227e+00,7.371415915050911316e+00,0.000000000000000000e+00
1.981173743035038459e+00,7.748234279892944443e+00,0.000000000000000000e+00
2.179856663426698038e+00,9.029123935432700421e+00,0.000000000000000000e+00
2.326671492386404694e+00,1.105212192069411614e+01,0.000000000000000000e+00
2.003440462767824393e+00,1.234461874965620964e+01,0.000000000000000000e+00
1.964535792907350586e+00,8.654904134338947230e+00,0.000000000000000000e+00
6.093193154368442777e+00,-1.023541023525238181e-01,0.000000000000000000e+00
5.990080790446510761e+00,-3.656354107376983964e-01,0.000000000000000000e+00
7.838924963133750978e+00,1.418966296089032852e-01,0.000000000000000000e+00
7.007775121483719616e+00,1.704881243895603193e-01,0.000000000000000000e+00
6.806693945758712339e+00,2.560418492395356571e-01,0.000000000000000000e+00
6.154467346919514803e+00,1.686419623854288896e-01,0.000000000000000000e+00
5.779086895643350985e+00,1.700165776712191934e-01,0.000000000000000000e+00
8.204044057903008280e+00,-2.020743460720239859e-01,0.000000000000000000e+00
5.316059206052411668e+00,-1.740517192611378688e-02,0.000000000000000000e+00
8.042543320146709362e+00,2.409258596664776431e-01,0.000000000000000000e+00
7.328568937210878431e+00,-1.429993834214287815e-02,0.000000000000000000e+00
6.002921147324222773e+00,3.309214274133222555e-01,0.000000000000000000e+00
7.082021135353163466e+00,8.698478384232620486e-02,0.000000000000000000e+00
5.818506679100396539e+00,4.624607444353062008e-02,0.000000000000000000e+00
8.442787874724974273e+00,2.378825404774007890e-01,0.000000000000000000e+00
4.988097281313063291e+00,5.193727991413391587e-01,0.000000000000000000e+00
6.044239226933402875e+00,-9.102710765891509903e-02,0.000000000000000000e+00
6.797579706292510515e+00,2.426959163154197158e-02,0.000000000000000000e+00
8.268250958549820950e+00,1.522850531404696117e-01,0.000000000000000000e+00
5.557148127262769854e+00,-8.833086918916177588e-02,0.000000000000000000e+00
7.089977157904739258e+00,9.422517978478758827e-02,0.000000000000000000e+00
8.131889774525458137e+00,-1.276668694946387905e-01,0.000000000000000000e+00
5.034077020507028877e+00,2.083934661523460796e-01,0.000000000000000000e+00
6.159018376675861717e+00,-2.502933821391606917e-01,0.000000000000000000e+00
7.273479645629379320e+00,-1.517166221964829365e-01,0.000000000000000000e+00
5.810962888173398788e+00,7.226146310008004781e-01,0.000000000000000000e+00
8.011143512439867109e+00,-1.645775604165799766e-01,0.000000000000000000e+00
5.900854335297022857e+00,-2.903086231302614562e-01,0.000000000000000000e+00
7.431626353764756665e+00,2.216836787414188936e-01,0.000000000000000000e+00
7.178096845196629161e+00,2.376522057927548393e-01,0.000000000000000000e+00
8.581602732029578462e+00,-2.727816252327697755e-01,0.000000000000000000e+00
7.029089959229851914e+00,4.847407153502202859e-01,0.000000000000000000e+00
7.233712881925995042e+00,-1.194859316942498417e-01,0.000000000000000000e+00
8.295630606055151901e+00,-4.403631963600065924e-02,0.000000000000000000e+00
6.837737841806021954e+00,2.532881333854333228e-01,0.000000000000000000e+00
7.888139897120913346e+00,-1.587903549328727737e-01,0.000000000000000000e+00
8.734439942214686781e+00,-2.637321418169067400e-01,0.000000000000000000e+00
5.530954182576127920e+00,-4.019398565492646735e-01,0.000000000000000000e+00
7.189238382115793691e+00,-6.311614097255903166e-01,0.000000000000000000e+00
7.168524161536876882e+00,-3.108389252668047192e-02,0.000000000000000000e+00
6.809633086446112316e+00,-4.449390716741034174e-02,0.000000000000000000e+00
8.787825508884672843e+00,3.663080755606265004e-01,0.000000000000000000e+00
8.257676837067112530e+00,-2.102133504942999553e-01,0.000000000000000000e+00
7.704385565097035204e+00,1.870709735613354519e-01,0.000000000000000000e+00
6.462374467923805099e+00,-1.492268047034267520e-01,0.000000000000000000e+00
5.464493020781169719e+00,2.093391709262686640e-01,0.000000000000000000e+00
9.236599217862726974e+00,3.221745435836557148e-01,0.000000000000000000e+00
6.168310152880947861e+00,-2.582122412093222907e-01,0.000000000000000000e+00
6.753470526649831385e+00,-8.796098480022934707e-02,0.000000000000000000e+00
5.353329749450362662e+00,-1.716379920861537400e-01,0.000000000000000000e+00
6.638708001936855396e+00,-1.421776378785543082e-01,0.000000000000000000e+00
5.275493634603198423e+00,1.514092005999592983e-01,0.000000000000000000e+00
6.912644687548575639e+00,1.524104199334755105e-01,0.000000000000000000e+00
9.754423676854347747e+00,6.763761193787610759e-01,0.000000000000000000e+00
4.109970713055888680e+00,-3.288257738963084598e-01,0.000000000000000000e+00
6.730351804221963441e+00,4.984809349577272730e-01,0.000000000000000000e+00
6.320894764551804990e+00,1.622373014342327890e-01,0.000000000000000000e+00
7.368694861542320673e+00,-2.860038795404822864e-01,0.000000000000000000e+00
4.849243878833949140e+00,-1.239372649965158057e-01,0.000000000000000000e+00
7.336580599127159097e+00,2.561674664115798708e-02,0.000000000000000000e+00
7.402438667065439404e+00,2.566682111967442670e-01,0.000000000000000000e+00
6.873229558588236365e+00,8.600796225057147359e-02,0.000000000000000000e+00
8.549528790275470413e+00,2.704985954581150959e-02,0.000000000000000000e+00
4.800840368814368375e+00,6.201215739954984985e-01,0.000000000000000000e+00
7.525832003189370845e+00,1.107439644229755854e-01,0.000000000000000000e+00
7.301570201770966051e+00,2.684534648789694278e-01,0.000000000000000000e+00
7.312873351908349306e+00,9.871821053869794804e-02,0.000000000000000000e+00
7.521155415708166814e+00,-1.224535521849101985e-02,0.000000000000000000e+00
6.031311822786504351e+00,8.916697033586069854e-02,0.000000000000000000e+00
7.857254721873061065e+00,5.742043323138127375e-01,0.000000000000000000e+00
9.037180379695657351e+00,-2.413843414905528784e-01,0.000000000000000000e+00
4.429543946694742829e+00,3.350774151886407037e-01,0.000000000000000000e+00
6.112098569130645309e+00,4.517918567844528832e-01,0.000000000000000000e+00
9.039087194517087198e+00,6.373024256398510667e-01,0.000000000000000000e+00
5.206995881126490033e+00,-1.057731594668474689e-01,0.000000000000000000e+00
8.223277212174032513e+00,-2.487195146914526409e-02,0.000000000000000000e+00
8.803597338485616319e+00,-3.846515627649335078e-01,0.000000000000000000e+00
6.337260485508717345e+00,-1.366257378721114080e-01,0.000000000000000000e+00
9.164774159396650077e+00,-4.457641070621410663e-03,0.000000000000000000e+00
5.507254083930696709e+00,-5.079820622985018463e-01,0.000000000000000000e+00
7.337836667552500636e+00,-6.618354600872172755e-01,0.000000000000000000e+00
8.807839649053331499e+00,1.082219604187782264e-01,0.000000000000000000e+00
7.710931205305696423e+00,-3.903140273488788226e-01,0.000000000000000000e+00
7.243074498949968465e+00,2.274425336888974136e-01,0.000000000000000000e+00
5.568946675492667531e+00,2.627310379079949090e-02,0.000000000000000000e+00
7.133837133076159631e+00,-1.434632200710780903e-02,0.000000000000000000e+00
6.642552118639422964e+00,-2.195928509387584937e-01,0.000000000000000000e+00
6.011659189370559098e+00,1.091550438425547137e-01,0.000000000000000000e+00
6.959191130979617945e+00,1.050781288797083962e-01,0.000000000000000000e+00
6.670264364465576357e+00,4.332057144099168977e-02,0.000000000000000000e+00
6.943473586766635286e+00,7.235021185570880697e-02,0.000000000000000000e+00
7.068904881104726812e+00,-3.707791246515455830e-03,0.000000000000000000e+00
5.167581858000765749e+00,1.385172103820143108e-01,0.000000000000000000e+00
6.043905783301893209e+00,4.390923047369764687e-01,0.000000000000000000e+00
7.996974391204860311e+00,-4.010956676613672833e-01,0.000000000000000000e+00
5.692157472232039161e+00,8.405716781998037734e-02,0.000000000000000000e+00
5.964673201705497974e+00,6.030434803777218189e-01,0.000000000000000000e+00
6.763750874769272947e+00,1.094024061100534739e-01,0.000000000000000000e+00
6.729680959981646282e+00,-1.951655550962698993e-01,0.000000000000000000e+00
6.395732755038626038e+00,1.750053654939598136e-01,0.000000000000000000e+00
6.813840205497249336e+00,-1.032096045383957689e-01,0.000000000000000000e+00
6.317419680791809711e+00,2.252717205609982565e-01,0.000000000000000000e+00
7.956492970040688562e+00,3.296475056481856097e-02,0.000000000000000000e+00
7.400803320454632406e+00,5.175307024698184710e-01,0.000000000000000000e+00
7.917102669367344525e+00,4.225776292704657572e-02,0.000000000000000000e+00
9.188217035113869002e+00,1.151429103916126601e-01,0.000000000000000000e+00
8.445733807492846523e+00,1.190710316042887518e-01,0.000000000000000000e+00
8.671671792042818794e+00,-3.588537177041214304e-02,0.000000000000000000e+00
5.686371466962578225e+00,3.629120791581734173e-01,0.000000000000000000e+00
7.558345815761903452e+00,-2.402146506830219741e-01,0.000000000000000000e+00
3.840189899779657967e+00,-3.508406181695228887e-01,0.000000000000000000e+00
9.407080207289157059e+00,8.746438729875436607e-03,0.000000000000000000e+00
4.946685440359500419e+00,3.817199650811615302e-02,0.000000000000000000e+00
5.466164805009323224e+00,2.961330369907972382e-01,0.000000000000000000e+00
7.467644779523441301e+00,-7.140962758200083971e-02,0.000000000000000000e+00
5.490595885164656131e+00,-3.222252595039842848e-01,0.000000000000000000e+00
6.058490276078113190e+00,-1.646635830346941942e-01,0.000000000000000000e+00
8.195058383644067135e+00,6.085775353205089000e-02,0.000000000000000000e+00
7.377929608457661104e+00,-7.266564106933393052e-01,0.000000000000000000e+00
5.871603245743610699e+00,-5.056798795514479972e-01,0.000000000000000000e+00
7.736410998150928364e+00,3.234223123153380786e-01,0.000000000000000000e+00
6.455640482589074303e+00,-5.346632816676267774e-01,0.000000000000000000e+00
8.824228857000093740e+00,1.598710162175057403e-01,0.000000000000000000e+00
6.269451209968271321e+00,-9.186855477849283080e-02,0.000000000000000000e+00
5.940837158160567455e+00,3.313139509261104482e-02,0.000000000000000000e+00
7.872451506114883202e+00,1.353097372696409617e-01,0.000000000000000000e+00
5.946248302422215914e+00,1.740337162195532694e-01,0.000000000000000000e+00
7.961499098102264860e+00,-7.795140264159664545e-01,0.000000000000000000e+00
9.092727001397195252e+00,-1.215059826631031681e-01,0.000000000000000000e+00
7.484853222528077943e+00,-2.361764013645126503e-01,0.000000000000000000e+00
7.805231987215473843e+00,3.665997932223852840e-01,0.000000000000000000e+00
6.763819740639029909e+00,3.266782798564891316e-02,0.000000000000000000e+00
7.822614992876674833e+00,-1.371658310836778305e-01,0.000000000000000000e+00
7.031741133652269049e+00,-2.356629755603516230e-01,0.000000000000000000e+00
7.392020338847546945e+00,2.600586434703552330e-01,0.000000000000000000e+00
6.665143399951624303e+00,5.560954704080317557e-02,0.000000000000000000e+00
4.480631496943894732e+00,-1.721398448270310133e-01,0.000000000000000000e+00
8.587313986369707663e+00,-2.679822009289633544e-01,0.000000000000000000e+00
4.890273647217819430e+00,-6.275292551265504448e-02,0.000000000000000000e+00
7.985709855100511234e+00,3.908608883204786610e-02,0.000000000000000000e+00
5.761381161665060091e+00,-1.586143651694446322e-01,0.000000000000000000e+00
6.275495327309708493e+00,-1.700690394291045904e-01,0.000000000000000000e+00
8.070493981406182016e+00,3.954061294988338304e-02,0.000000000000000000e+00
9.065095850667777455e+00,-9.941481216571552981e-02,0.000000000000000000e+00
6.339623113162950574e+00,1.415932063492073845e-01,0.000000000000000000e+00
6.094255267762124006e+00,3.849386689280714369e-01,0.000000000000000000e+00
6.392859583667577894e+00,-6.085268189972962982e-02,0.000000000000000000e+00
7.256213604041466425e+00,-8.385472244276211129e-02,0.000000000000000000e+00
6.367712545879779640e+00,4.509904979301531530e-02,0.000000000000000000e+00
7.880973068750796173e+00,1.959277369195094043e-01,0.000000000000000000e+00
7.981933374375763002e+00,2.136286761055654626e-01,0.000000000000000000e+00
6.768496159104948617e+00,-9.200725709172667965e-01,0.000000000000000000e+00
8.016301988968264070e+00,-1.343970841896260093e-01,0.000000000000000000e+00
7.071756071242254471e+00,4.885281116757198561e-01,0.000000000000000000e+00
8.044379124180426999e+00,-7.265238036076031580e-01,0.000000000000000000e+00
9.788998591113617920e+00,-4.504243543585646076e-02,0.000000000000000000e+00
8.274982457111640599e+00,5.725090405038032459e-01,0.000000000000000000e+00
5.558265656077180594e+00,-1.655852780667335933e-01,0.000000000000000000e+00
6.537442843881099641e+00,1.589415734731591534e-01,0.000000000000000000e+00
9.119780848617356384e+00,2.471449277415007084e-01,0.000000000000000000e+00
8.651738568948760033e+00,8.767856100438035927e-02,0.000000000000000000e+00
6.895402244056013430e+00,2.717117424657396474e-01,0.000000000000000000e+00
5.584574507380946962e+00,1.867871194269387636e-01,0.000000000000000000e+00
8.579907242804482692e+00,8.073356639905338028e-02,0.000000000000000000e+00
8.520732747731340595e+00,-7.054914975868206151e-01,0.000000000000000000e+00
5.327359708527843907e+00,1.136083538702818696e-01,0.000000000000000000e+00
6.179667327693579182e+00,-2.921852625433509210e-01,0.000000000000000000e+00
6.489547769457984394e+00,1.106326936192644946e-02,0.000000000000000000e+00
8.558174532113596911e+00,-3.442475645866918121e-01,0.000000000000000000e+00
5.359499687167565085e+00,-2.235240844303275076e-01,0.000000000000000000e+00
4.050913541182456612e+00,2.914514674352738921e-01,0.000000000000000000e+00
6.977807666586712365e+00,-2.934137871773295214e-01,0.000000000000000000e+00
6.425829167408485532e+00,-3.764078678522428945e-01,0.000000000000000000e+00
7.094315375195565210e+00,1.221360396747505350e-01,0.000000000000000000e+00
8.115284181437928623e+00,1.832581455984279295e-01,0.000000000000000000e+00
8.551276760115124276e+00,8.588361732740050491e-02,0.000000000000000000e+00
7.022593371030592557e+00,-2.712956248224782443e-02,0.000000000000000000e+00
7.928429673250885656e+00,-4.877830766250288996e-01,0.000000000000000000e+00
7.025322166158195714e+00,1.781671561318783348e-01,0.000000000000000000e+00
6.600969824198514857e+00,3.288612815147167745e-01,0.000000000000000000e+00
5.429094447984926575e+00,-6.457570432220692824e-01,0.000000000000000000e+00
7.985915603165814503e+00,4.659326856889207669e-01,0.000000000000000000e+00
7.103852575832330096e+00,-1.007053259551692198e-01,0.000000000000000000e+00
6.990038869061019788e+00,5.957643518548651207e-02,0.000000000000000000e+00
7.117885449791335972e+00,1.284891581690025264e-01,0.000000000000000000e+00
7.823418556138448388e+00,-4.332437123827257430e-01,0.000000000000000000e+00
8.508048510368871220e+00,4.570546419794341286e-01,0.000000000000000000e+00
6.393288797425718428e+00,3.413640125546832937e-01,0.000000000000000000e+00
6.503218171897807487e+00,1.514759074009853490e-01,0.000000000000000000e+00
9.641272910274473418e+00,-6.135090154448774591e-02,0.000000000000000000e+00
5.461887745201644329e+00,2.964132529896257862e-01,0.000000000000000000e+00
6.007896044000919922e+00,1.135631124529613289e-01,0.000000000000000000e+00
6.589836591784375308e+00,2.109708386904431687e-01,0.000000000000000000e+00
6.001120068677864516e+00,-8.207547906282131045e-02,0.000000000000000000e+00
7.204383312876212031e+00,-1.342745904897431897e-01,0.000000000000000000e+00
7.233932957879779302e+00,-1.372224773313380775e-01,0.000000000000000000e+00
7.903825330833409879e+00,-4.314751339161678745e-01,0.000000000000000000e+00
7.316417089791748651e+00,-3.588363338908311939e-01,0.000000000000000000e+00
8.450831953471821478e+00,-4.394121916214404622e-01,0.000000000000000000e+00
8.819891161700024185e+00,3.831457470012539918e-02,0.000000000000000000e+00
2.000000000000000000e+00,2.000000000000000000e+00,1.000000000000000000e+00
2.000000000000000000e+00,0.000000000000000000e+00,1.000000000000000000e+00
2.000000000000000000e+00,-1.000000000000000000e+00,1.000000000000000000e+00
2.000000000000000000e+00,-4.000000000000000000e+00,1.000000000000000000e+00
1.200000000000000000e+01,0.000000000000000000e+00,1.000000000000000000e+00
1.200000000000000000e+01,1.200000000000000000e+01,1.000000000000000000e+00
